<?xml version="1.0" encoding="UTF-8"?>
<svg width="140px" height="141px" viewBox="0 0 140 141" version="1.1" xmlns="http://www.w3.org/2000/svg" xmlns:xlink="http://www.w3.org/1999/xlink">
    <!-- Generator: Sketch 52.6 (67491) - http://www.bohemiancoding.com/sketch -->
    <title>Group</title>
    <desc>Created with Sketch.</desc>
    <g id="Page-1" stroke="none" stroke-width="1" fill="none" fill-rule="evenodd">
        <g id="Desktop-HD" transform="translate(-1033.000000, -761.000000)">
            <g id="Group-24" transform="translate(0.000000, 614.000000)">
                <g id="Group-8" transform="translate(897.000000, 104.000000)">
                    <g id="Group-7" transform="translate(31.000000, 44.000000)">
                        <g id="Group" transform="translate(106.000000, 0.000000)">
                            <rect id="Rectangle" fill="#121227" transform="translate(69.030628, 69.189677) rotate(135.000000) translate(-69.030628, -69.189677) " x="20.240628" y="20.3996767" width="97.58" height="97.58"></rect>
                            <rect id="Rectangle" stroke="#695C9E" stroke-width="2" opacity="0.3" stroke-linecap="round" stroke-linejoin="round" transform="translate(69.030628, 69.189677) rotate(135.000000) translate(-69.030628, -69.189677) " x="20.240628" y="20.3996767" width="97.58" height="97.58"></rect>
                            <g class="cta-icon">
                              <path d="M67.26,50.25 L70.8,50.25 C75.1740952,50.25 78.72,53.7959048 78.72,58.17 L78.72,63.17 L59.34,63.17 L59.34,58.17 C59.34,56.0694854 60.1744262,54.0550024 61.6597143,52.5697143 C63.1450024,51.0844262 65.1594854,50.25 67.26,50.25 Z" id="Path" stroke="#695C9E" stroke-width="4"></path>
                              <path d="M61.6,86.86 L56.46,86.86 C56.0780854,86.857357 55.7128639,86.7031026 55.4446849,86.4311728 C55.1765059,86.159243 55.0273386,85.7919145 55.03,85.41 L55.03,64.62 C55.0273386,64.2380855 55.1765059,63.870757 55.4446849,63.5988272 C55.7128639,63.3268974 56.0780854,63.172643 56.46,63.17 L81.6,63.17 C81.9819146,63.172643 82.3471361,63.3268974 82.6153151,63.5988272 C82.8834941,63.870757 83.0326614,64.2380855 83.03,64.62 L83.03,85.41 C83.0326614,85.7919145 82.8834941,86.159243 82.6153151,86.4311728 C82.3471361,86.7031026 81.9819146,86.857357 81.6,86.86 L61.6,86.86 Z" id="Path" stroke="#695C9E" stroke-width="4"></path>
                              <polyline id="Path" stroke="#695C9E" stroke-width="4" stroke-linecap="round" stroke-linejoin="round" points="73.94 71.44 67.11 78.8 64.12 76.11"></polyline>
                            </g>
                        </g>
                    </g>
                </g>
            </g>
        </g>
    </g>
</svg>
